
module gitlab.com/jonee316/acloudapp-backend-serverless/languages/go

go 1.15

require (
	github.com/avct/uasurfer v0.0.0-20191028135549-26b5daa857f1
	github.com/aws/aws-lambda-go v1.19.1
	github.com/aws/aws-sdk-go v1.29.15
	github.com/dgrijalva/jwt-go v3.2.0+incompatible
	go.mongodb.org/mongo-driver v1.4.1
	golang.org/x/crypto v0.0.0-20190530122614-20be4c3c3ed5
)
